Num,Query
Q1,"MATCH (s:Store) WHERE s.store_id=""AAAAAAAAIAAAAAAA"" AND date(s.start_valid_time)<date(""2000-02"") AND (date(s.end_valid_time)>=date(""2000-01"") OR date(s.end_valid_time) IS NULL) RETURN keys(s) as schema"
Q2,"MATCH (i:Store) WHERE i.store_id=""AAAAAAAAIAAAAAAA"" and date(i.start_valid_time)<date(""2000-11"") AND (date(i.end_valid_time)>=date(""2000-10"") or date(i.end_valid_time) IS NULL) RETURN keys(i) as schema, left(i.start_valid_time,7) as start_valid_time, left(i.end_valid_time,7) as end_valid_time UNION MATCH (j:Store) WHERE j.store_id=""AAAAAAAAIAAAAAAA"" and date(j.start_valid_time)<date(""2001-11"") and  ( date(j.end_valid_time) >=date(""2001-10"") or date(j.end_valid_time) IS NULL) RETURN keys(j) as schema, left(j.start_valid_time,7) as start_valid_time, left(j.end_valid_time,7) as end_valid_time"
Q3,"MATCH (i:Store) WHERE i.store_id=""AAAAAAAAIAAAAAAA"" and date(i.start_valid_time)<date(""2000-11"") AND (date(i.end_valid_time)>=date(""2000-10"") or date(i.end_valid_time) IS NULL) MATCH (j:Store) WHERE j.store_id=""AAAAAAAAIAAAAAAA"" and date(j.start_valid_time)<date(""2001-11"") and  ( date(j.end_valid_time) >=date(""2001-10"") or date(j.end_valid_time) IS NULL) RETURN keys(i) as schema_2000_10,left(i.start_valid_time,7) as start_valid_time_schema_2000_10, left(i.end_valid_time,7) as end_valid_time_schema_2000_10, keys(j) as schema_20001_10, left(j.start_valid_time,7) as start_valid_time_schema_20001_10, left(j.end_valid_time,7) as end_valid_time_schema_20001_10, [attribute in keys(j) WHERE NOT attribute IN keys(i)] as added_attributes, [attribute in keys(i) WHERE NOT attribute IN keys(j)] as missing_attributes"
Q4 ,"MATCH (s:Store) WHERE s.store_id=""AAAAAAAAIAAAAAAA"" AND date(s.start_valid_time)<date(""2003-02"") AND (date(s.end_valid_time)>=date(""2000-10"") OR date(s.end_valid_time) IS NULL)  RETURN keys(s) as schema,left(s.start_valid_time,7) as  date_start,left(s.end_valid_time,7) as date_end "
Q5,"UNWIND range(0,5) as i MATCH (s:Store) WITH i, s,  [date in split(s.end_valid_time,""-"")|toInteger(date)] as date_end, [date in split(s.start_valid_time,""-"")|toInteger(date)] AS date_start WHERE s.store_id=""AAAAAAAAIAAAAAAA"" AND date_start[0]<=(2000+i) AND (date_end[0]>=(2000+i) OR date_end IS NULL) RETURN (2000+i) as year, keys(s) as schema ORDER BY (2000+i) ASC"
Q6,"MATCH (s:Store) WHERE date(s.start_valid_time)< date(""2004-02"") AND (date(s.end_valid_time)>=date(""2002-01"") OR date(s.end_valid_time) IS NULL) AND s.store_id=""AAAAAAAAIAAAAAAA"" WITH s ORDER BY date(s.end_valid_time) ASC WITH collect(s) as store UNWIND range(0, size(store) - 2) as index RETURN left(store[index].end_valid_time,7) as date1, left(store[index +1].end_valid_time,7) as date2,[attribute in keys(store[index+1]) WHERE NOT attribute IN keys(store[index])] as added_attributes, [attribute in keys(store[index]) WHERE NOT attribute IN keys(store[index+1])] as missing_attributes"
Q7,"MATCH (i:Item) WHERE i.item_id=""AAAAAAAAEAAAAAAA"" AND date(i.start_valid_time)<date(""2000-11"") AND (date(i.end_valid_time)>=date(""2000-10"") OR date(i.end_valid_time) IS NULL) RETURN i.current_price as price_2000_10"
Q8,"MATCH (i:Item) WHERE i.item_id=""AAAAAAAAEAAAAAAA"" and date(i.start_valid_time)<date(""2000-11"") AND (date(i.end_valid_time)>=date(""2000-10"") OR date(i.end_valid_time) IS NULL)  RETURN i.current_price as price, left(i.start_valid_time,7) as start_valid_time, left(i.end_valid_time,7) as end_valid_time  UNION MATCH (j:Item) WHERE j.item_id=""AAAAAAAAEAAAAAAA"" and date(j.start_valid_time)<date(""2001-11"") and (date(j.end_valid_time) IS NULL or date(j.end_valid_time) >=date(""2001-10"")) RETURN j.current_price as price, left(j.start_valid_time,7) as start_valid_time, left(j.end_valid_time,7) as end_valid_time"
Q9,"MATCH (i:Item) WHERE i.item_id=""AAAAAAAAEAAAAAAA"" and date(i.start_valid_time)<date(""2000-11"") AND (date(i.end_valid_time)>=date(""2000-10"") OR date(i.end_valid_time) IS NULL)  MATCH (j:Item) WHERE j.item_id=""AAAAAAAAEAAAAAAA"" and date(j.start_valid_time)>=date(""2000-11"") and (date(j.end_valid_time) IS NULL or date(j.end_valid_time) >=date(""2001-10"")) RETURN i.current_price as price_2000_10,j.current_price as price_2001_10, ((toFloat(j.current_price)-toFloat(i.current_price))/toFloat(i.current_price))*100 as price_evolution"
Q10,"MATCH (i:Item) WHERE i.item_id=""AAAAAAAAEAAAAAAA"" AND date(i.start_valid_time)<date(""2002-02"") AND (date(i.end_valid_time)>=date(""2000-01"") OR date(i.end_valid_time) IS NULL)  RETURN left(i.start_valid_time,7) as date_start, left(i.end_valid_time,7) as end_valid_time, i.current_price as price ORDER BY date_start ASC"
Q11,"UNWIND range(0,5) as y MATCH (i:Item) WITH y, i,  [date in split(i.start_valid_time,""-"")|toInteger(date)] AS date_start, [date in split(i.end_valid_time,""-"")|toInteger(date)] AS date_end WHERE i.item_id=""AAAAAAAAEAAAAAAA"" AND date_start[0]<=(2000+y) AND (date_end[0]>=(2000+y) OR i.end_valid_time IS NULL) RETURN (2000+y) AS year, avg(toFloat(i.current_price)) as price ORDER BY year ASC"
Q12,"MATCH (s:Store)-[rel:SS_Customer]->(c:Customer) WHERE s.store_id =""AAAAAAAABAAAAAAA"" AND date(rel.start_valid_time)<date(""2001-06"") AND (date(rel.end_valid_time)>=date(""2001-05"") OR date(rel.end_valid_time) IS NULL)  RETURN DISTINCT c.customer_id"
Q13,"MATCH (s:Store)-[rel:SS_Customer]->(c:Customer) WHERE s.store_id =""AAAAAAAABAAAAAAA"" AND date(rel.start_valid_time)<date(""2001-06"") AND (date(rel.end_valid_time)>=date(""2001-05"") OR date(rel.end_valid_time) IS NULL)  RETURN  c.customer_id UNION MATCH (s:Store)-[rel:SS_Customer]->(c:Customer) WHERE s.store_id =""AAAAAAAABAAAAAAA"" AND date(rel.start_valid_time)<date(""2001-07"") AND (date(rel.end_valid_time)>=date(""2001-06"") OR date(rel.end_valid_time) IS NULL)  RETURN  c.customer_id"
Q14,"MATCH (s:Store)-[rel:SS_Customer]->(c:Customer) WHERE s.store_id =""AAAAAAAABAAAAAAA"" AND date(rel.start_valid_time)<date(""2001-06"") AND (date(rel.end_valid_time)>=date(""2001-05"") OR date(rel.end_valid_time) IS NULL) RETURN count( DISTINCT c.customer_id) as nb_customers"
Q15,"MATCH (s:Store)-[rel:SS_Customer]->(c:Customer) WHERE s.store_id =""AAAAAAAABAAAAAAA"" AND date(rel.start_valid_time)<date(""2001-06"") AND (date(rel.end_valid_time)>=date(""2001-05"") OR date(rel.end_valid_time) IS NULL) RETURN count( DISTINCT c.customer_id) as nb_customers UNION MATCH (s1:Store)-[rel1:SS_Customer]->(c1:Customer) WHERE s1.store_id =""AAAAAAAABAAAAAAA"" AND date(rel1.start_valid_time)<date(""2001-07"") AND (date(rel1.end_valid_time)>=date(""2001-06"") OR date(rel1.end_valid_time) IS NULL) RETURN count( DISTINCT c1.customer_id) as nb_customers"
Q16,"MATCH (s:Store)-[rel:SS_Customer]->(c:Customer) WHERE s.store_id =""AAAAAAAABAAAAAAA"" AND date(rel.start_valid_time)<date(""2001-11"") AND (date(rel.end_valid_time)>=date(""2001-05"") OR date(rel.end_valid_time) IS NULL) RETURN DISTINCT c.customer_id"
Q17,"UNWIND range(0,5) as i MATCH (s:Store)-[rel:SS_Customer]->(c:Customer) WITH i, s, rel,c, [date in split(rel.end_valid_time,""-"")|toInteger(date)] as date_end, [date in split(rel.start_valid_time,""-"")|toInteger(date)] AS date_start WHERE s.store_id=""AAAAAAAABAAAAAAA"" AND date_start[0]<=(2000+i) AND (date_end[0]>=(2000+i) OR date_end IS NULL) RETURN collect(DISTINCT c.customer_id) as list_customers, (2000+i) as year ORDER BY (2000+i) ASC"
Q18,"UNWIND range(0,5) as i MATCH (s:Store)-[rel:SS_Customer]->(c:Customer) WITH i, s, rel,c, [date in split(rel.end_valid_time,""-"")|toInteger(date)] as date_end, [date in split(rel.start_valid_time,""-"")|toInteger(date)] AS date_start WHERE s.store_id=""AAAAAAAABAAAAAAA"" AND date_start[0]<=(2000+i) AND (date_end[0]>=(2000+i) OR date_end IS NULL) RETURN (2000+i) as year, count(DISTINCT c.customer_id) as nb_customers ORDER BY (2000+i) ASC"
Q19,"MATCH (c:Customer)-[r:Has_Household_Demographics]->() WHERE c.customer_id=""AAAAAAAAEJCKAAAA"" AND date(r.start_valid_time)<date(""2004-11"") and (date(r.end_valid_time)>=date(""2004-10"") OR date(r.end_valid_time) IS NULL) RETURN DISTINCT keys(r) as schema_2004_10"
Q20,"MATCH (c:Customer)-[r:Has_Household_Demographics]->() WHERE c.customer_id=""AAAAAAAAEJCKAAAA"" AND date(r.start_valid_time)<date(""2004-11"") and (date(r.end_valid_time)>=date(""2004-10"") OR date(r.end_valid_time) IS NULL)  RETURN keys(r) as schema UNION MATCH (c1:Customer)-[j:Has_Household_Demographics]->() WHERE c1.customer_id=""AAAAAAAAEJCKAAAA"" AND date(j.start_valid_time)<date(""2005-11"") and (date(j.end_valid_time)>=date(""2005-10"") OR date(j.end_valid_time) IS NULL) RETURN keys(j) as schema"
Q21,"MATCH (c:Customer)-[r:Has_Household_Demographics]->() WHERE c.customer_id=""AAAAAAAAEJCKAAAA"" AND date(r.start_valid_time)<date(""2004-11"") and (date(r.end_valid_time)>=date(""2004-10"") OR date(r.end_valid_time) IS NULL) MATCH (c1:Customer)-[j:Has_Household_Demographics]->() WHERE c1.customer_id=""AAAAAAAAEJCKAAAA"" AND date(j.start_valid_time)<date(""2005-11"") and (date(j.end_valid_time)>=date(""2005-10"") OR date(j.end_valid_time) IS NULL)  RETURN DISTINCT keys(r) as schema_2004_10, keys(j) as schema_2005_10, [attribute in keys(j)  WHERE NOT attribute in keys(r) ] as added_attributes"
Q22,"MATCH (c:Customer)-[r:Has_Household_Demographics]->() WHERE c.customer_id=""AAAAAAAAEJCKAAAA"" AND date(r.start_valid_time)<date(""2005-11"") and (date(r.end_valid_time)>=date(""2004-10"") OR date(r.end_valid_time) IS NULL) RETURN DISTINCT keys(r) as schema, r.start_valid_time as start_valid_time,r.end_valid_time as end_valid_time"
Q24,"MATCH (c:Customer)-[r:Has_Household_Demographics]->() WHERE c.customer_id=""AAAAAAAAEJCKAAAA"" AND date(r.start_valid_time)<date(""2005-11"") AND (date(r.end_valid_time)>=date(""2004-10"") OR date(r.end_valid_time) IS NULL)  WITH r ORDER BY r.start_valid_time ASC WITH collect(r) as rel UNWIND  range(0, size(rel) - 2) as index RETURN left(rel[index].end_valid_time,7) as date_schema0, left(rel[index+1].end_valid_time,7) as date_schema1, [attribute in keys(rel[index+1]) WHERE NOT attribute in keys(rel[index])] as added_attributes"
Q25,"MATCH (s:Store)-[rel:SS_Item]->(i:Item)  WHERE  date(rel.start_valid_time)<date(""2001-11"") and (date(rel.end_valid_time)>=date(""2001-10"") OR date(rel.end_valid_time) IS NULL) AND s.store_id= ""AAAAAAAAHAAAAAAA"" and i.item_id=""AAAAAAAAEAAAAAAA"" RETURN rel.quantity as quantity"
Q26,"MATCH (s:Store)-[rel:SS_Item]->(i:Item)  WHERE  date(rel.start_valid_time)<date(""2001-11"") and (date(rel.end_valid_time)>=date(""2001-10"") OR date(rel.end_valid_time) IS NULL) AND s.store_id= ""AAAAAAAAHAAAAAAA"" and i.item_id=""AAAAAAAAEAAAAAAA"" RETURN rel.quantity as quantity UNION MATCH (s1:Store)-[rel1:SS_Item]->(i1:Item)  WHERE  date(rel1.start_valid_time)<date(""2001-12"") and (date(rel1.end_valid_time)>=date(""2001-11"") OR date(rel1.end_valid_time) IS NULL) AND s1.store_id= ""AAAAAAAAHAAAAAAA"" and i1.item_id=""AAAAAAAAEAAAAAAA"" RETURN rel1.quantity as quantity"
Q27,"MATCH (s:Store)-[rel:SS_Item]->(i:Item)  WHERE  date(rel.start_valid_time)<date(""2001-11"") and (date(rel.end_valid_time)>=date(""2001-05"") OR date(rel.end_valid_time) IS NULL) AND s.store_id= ""AAAAAAAAHAAAAAAA"" and i.item_id=""AAAAAAAAEAAAAAAA"" RETURN rel.start_valid_time as start_valid_time, rel.end_valid_time as end_valid_time, rel.quantity as quantity"
Q28,"UNWIND range(0,5) as y MATCH (s:Store)-[rel:SS_Item]->(i:Item)    WITH s,rel,y ,i,[date in split(rel.start_valid_time,""-"")|toInteger(date)] AS date_start,  [date in split(rel.end_valid_time,""-"")|toInteger(date)] AS date_end WHERE i.item_id=""AAAAAAAAEAAAAAAA""  AND s.store_id=""AAAAAAAAHAAAAAAA"" AND date_start[0]<=(2000+y) AND (date_end[0]>=(2000+y) OR date_end IS NULL) RETURN avg(toFloat(rel.quantity)) as quantity, (2000+y) as year ORDER BY year ASC"
Q29,"MATCH (n) WHERE date(n.start_valid_time)<date(""2000-02"") AND (date(n.end_valid_time)>=date(""2000-01"") OR date(n.end_valid_time) IS NULL) OPTIONAL MATCH (n)-[rel]->() WHERE date(rel.start_valid_time)<date(""2000-02"") AND (date(rel.end_valid_time)>=date(""2000-01"") OR date(rel.end_valid_time) IS NULL) OPTIONAL MATCH ()-[rel1]->(n) WHERE date(rel1.start_valid_time)<date(""2000-02"") AND (date(rel1.end_valid_time)>=date(""2000-01"") OR date(rel1.end_valid_time) IS NULL) RETURN n,rel,rel1"
Q23,"UNWIND range(0,3) as y MATCH (c:Customer)-[rel:Has_Household_Demographics]->()  WITH c,rel,y ,[date in split(rel.start_valid_time,""-"")|toInteger(date)] AS date_start,  [date in split(rel.end_valid_time,""-"")|toInteger(date)] AS date_end WHERE c.customer_id=""AAAAAAAAEJCKAAAA""  AND date_start[0]<=(2002+y) AND (date_end[0]>=(2002+y) OR date_end IS NULL) RETURN DISTINCT  keys(rel) as schemas,(2002+y) as year ORDER BY (2002+y) ASC"
